{
  "formatVersion": 1,
  "database": {
    "version": 1,
    "identityHash": "7bd52521df9c54689bdd2e94962f7b67",
    "entities": [
      {
        "tableName": "User",
        "createSql": "CREATE TABLE IF NOT EXISTS `${TABLE_NAME}` (`id` INTEGER NOT NULL, `f_name` TEXT, `l_name` TEXT, `email` TEXT, `gender` TEXT, `birth_date` TEXT, `language` TEXT, `appearance_mode` INTEGER NOT NULL, `general_notifications` INTEGER NOT NULL, `new_offers_notification` INTEGER NOT NULL, `order_notification` INTEGER NOT NULL, `event_notification` INTEGER NOT NULL, `adv_notification` INTEGER NOT NULL, `payment_method_notification` INTEGER NOT NULL, `avatar` TEXT, `mobile` TEXT, `country_id` INTEGER, `country_name` TEXT, PRIMARY KEY(`id`))",
        "fields": [
          {
            "fieldPath": "id",
            "columnName": "id",
            "affinity": "INTEGER",
            "notNull": true
          },
          {
            "fieldPath": "f_name",
            "columnName": "f_name",
            "affinity": "TEXT",
            "notNull": false
          },
          {
            "fieldPath": "l_name",
            "columnName": "l_name",
            "affinity": "TEXT",
            "notNull": false
          },
          {
            "fieldPath": "email",
            "columnName": "email",
            "affinity": "TEXT",
            "notNull": false
          },
          {
            "fieldPath": "gender",
            "columnName": "gender",
            "affinity": "TEXT",
            "notNull": false
          },
          {
            "fieldPath": "birth_date",
            "columnName": "birth_date",
            "affinity": "TEXT",
            "notNull": false
          },
          {
            "fieldPath": "language",
            "columnName": "language",
            "affinity": "TEXT",
            "notNull": false
          },
          {
            "fieldPath": "appearance_mode",
            "columnName": "appearance_mode",
            "affinity": "INTEGER",
            "notNull": true
          },
          {
            "fieldPath": "general_notifications",
            "columnName": "general_notifications",
            "affinity": "INTEGER",
            "notNull": true
          },
          {
            "fieldPath": "new_offers_notification",
            "columnName": "new_offers_notification",
            "affinity": "INTEGER",
            "notNull": true
          },
          {
            "fieldPath": "order_notification",
            "columnName": "order_notification",
            "affinity": "INTEGER",
            "notNull": true
          },
          {
            "fieldPath": "event_notification",
            "columnName": "event_notification",
            "affinity": "INTEGER",
            "notNull": true
          },
          {
            "fieldPath": "adv_notification",
            "columnName": "adv_notification",
            "affinity": "INTEGER",
            "notNull": true
          },
          {
            "fieldPath": "payment_method_notification",
            "columnName": "payment_method_notification",
            "affinity": "INTEGER",
            "notNull": true
          },
          {
            "fieldPath": "avatar",
            "columnName": "avatar",
            "affinity": "TEXT",
            "notNull": false
          },
          {
            "fieldPath": "mobile",
            "columnName": "mobile",
            "affinity": "TEXT",
            "notNull": false
          },
          {
            "fieldPath": "country.id",
            "columnName": "country_id",
            "affinity": "INTEGER",
            "notNull": false
          },
          {
            "fieldPath": "country.name",
            "columnName": "country_name",
            "affinity": "TEXT",
            "notNull": false
          }
        ],
        "primaryKey": {
          "columnNames": [
            "id"
          ],
          "autoGenerate": false
        },
        "indices": [],
        "foreignKeys": []
      },
      {
        "tableName": "OnBoard",
        "createSql": "CREATE TABLE IF NOT EXISTS `${TABLE_NAME}` (`id` INTEGER PRIMARY KEY AUTOINCREMENT NOT NULL, `title` TEXT, `short_description` TEXT, `image` TEXT)",
        "fields": [
          {
            "fieldPath": "id",
            "columnName": "id",
            "affinity": "INTEGER",
            "notNull": true
          },
          {
            "fieldPath": "title",
            "columnName": "title",
            "affinity": "TEXT",
            "notNull": false
          },
          {
            "fieldPath": "short_description",
            "columnName": "short_description",
            "affinity": "TEXT",
            "notNull": false
          },
          {
            "fieldPath": "image",
            "columnName": "image",
            "affinity": "TEXT",
            "notNull": false
          }
        ],
        "primaryKey": {
          "columnNames": [
            "id"
          ],
          "autoGenerate": true
        },
        "indices": [],
        "foreignKeys": []
      },
      {
        "tableName": "FilterProduct",
        "createSql": "CREATE TABLE IF NOT EXISTS `${TABLE_NAME}` (`id` INTEGER PRIMARY KEY AUTOINCREMENT NOT NULL, `key` TEXT, `trans` TEXT)",
        "fields": [
          {
            "fieldPath": "id",
            "columnName": "id",
            "affinity": "INTEGER",
            "notNull": true
          },
          {
            "fieldPath": "key",
            "columnName": "key",
            "affinity": "TEXT",
            "notNull": false
          },
          {
            "fieldPath": "trans",
            "columnName": "trans",
            "affinity": "TEXT",
            "notNull": false
          }
        ],
        "primaryKey": {
          "columnNames": [
            "id"
          ],
          "autoGenerate": true
        },
        "indices": [],
        "foreignKeys": []
      }
    ],
    "views": [],
    "setupQueries": [
      "CREATE TABLE IF NOT EXISTS room_master_table (id INTEGER PRIMARY KEY,identity_hash TEXT)",
      "INSERT OR REPLACE INTO room_master_table (id,identity_hash) VALUES(42, '7bd52521df9c54689bdd2e94962f7b67')"
    ]
  }
}